<svg xmlns="http://www.w3.org/2000/svg" width="12.588" height="7.176" viewBox="0 0 12.588 7.176">
    <defs>
        <style>
            .cls-1{fill:#262637}
        </style>
    </defs>
    <g id="arrow-point-to-right" transform="rotate(90 54.864 -42.276)">
        <path id="Path_6" d="M104.056 6.917l-5.413 5.413a.882.882 0 0 1-1.243-1.247l4.79-4.789L97.4 1.5A.882.882 0 0 1 98.644.258l5.413 5.413a.881.881 0 0 1 0 1.246z" class="cls-1" data-name="Path 6"/>
    </g>
</svg>
