<svg xmlns="http://www.w3.org/2000/svg" id="map_1_" width="157.33" height="157.337" data-name="map (1)" viewBox="0 0 157.33 157.337">
    <defs>
        <style>
            .cls-1{fill:#fff}.cls-2{fill:#e3e7f2}.cls-3{fill:#a4c2f7}.cls-4{fill:#fac6bf}.cls-5{fill:#ffefed}.cls-6{fill:#f87c6a}.cls-7{fill:#2b67e2}
        </style>
    </defs>
    <g id="Group_718" data-name="Group 718" transform="translate(2.622 2.621)">
        <path id="Path_477" d="M23.278 8.817v.813a13.448 13.448 0 0 0-4.038 2.753 13.17 13.17 0 0 0-3.828 9.282v113.829a13.186 13.186 0 0 0-7.867 12.036V21.666a13.07 13.07 0 0 1 13.11-13.111 12.345 12.345 0 0 1 2.623.262z" class="cls-1" data-name="Path 477" transform="translate(-7.545 -8.547)"/>
        <g id="Group_714" data-name="Group 714" transform="translate(0 1.083)">
            <path id="Path_478" d="M41.012 12.054v125.051a12.345 12.345 0 0 0-2.622-.262 13.384 13.384 0 0 0-5.244 1.075V24.09a13.169 13.169 0 0 1 3.828-9.282 13.453 13.453 0 0 1 4.038-2.753z" class="cls-2" data-name="Path 478" transform="translate(-25.278 -12.054)"/>
            <path id="Rectangle_656" d="M0 0h26.222v57.688H0z" class="cls-2" data-name="Rectangle 656" transform="translate(110.131 46.124)"/>
            <path id="Path_479" d="M407.9 419.444a13.116 13.116 0 0 1-13.111 13.111h-28.845v-31.466h26.222v5.511a12.341 12.341 0 0 1 2.622-.262 13.116 13.116 0 0 1 13.112 13.106z" class="cls-2" data-name="Path 479" transform="translate(-255.813 -281.544)"/>
            <path id="Path_480" d="M240.8 396.737v32.8H208z" class="cls-2" data-name="Path 480" transform="translate(-146.398 -278.53)"/>
            <path id="Path_481" d="M101.942 273.088v15.733l-55.065 55.066H20.655a13.111 13.111 0 1 1 0-26.222 12.341 12.341 0 0 1 2.622.262v-44.839h78.665z" class="cls-2" data-name="Path 481" transform="translate(-7.544 -192.876)"/>
        </g>
        <path id="Path_482" d="M28.521 444.377h-7.866a13.111 13.111 0 1 1 0-26.222 8.488 8.488 0 0 1 2.491 1.154 13.11 13.11 0 0 0 5.375 25.068z" class="cls-1" data-name="Path 482" transform="translate(-7.544 -292.283)"/>
        <g id="Group_715" data-name="Group 715" transform="translate(7.865 .008)">
            <path id="Path_483" d="M119.673 273.089v15.733l-55.065 55.065H46.252a13.11 13.11 0 0 1-5.375-25.068c1.154.655-.314-1.259.131-1.154l2.491.289-2.491-44.865z" class="cls-2" data-name="Path 483" transform="translate(-33.14 -191.802)"/>
            <path id="Rectangle_657" d="M0 0h26.222v13.111H0z" class="cls-2" data-name="Rectangle 657" transform="translate(102.266 18.355)"/>
            <path id="Path_484" d="M153.143 97.133v57.687h26.222v15.733h-26.222v31.466H137.41v-32.8l-32.8 32.8H82.345l55.066-55.065v-15.733H58.745V68.289h94.4V81.4h26.222v15.733z" class="cls-2" data-name="Path 484" transform="translate(-50.877 -49.934)"/>
            <path id="Path_485" d="M467.011 21.666V147.53a13.116 13.116 0 0 0-13.111-13.111 12.343 12.343 0 0 0-2.622.262V8.817a12.344 12.344 0 0 1 2.622-.262 13.116 13.116 0 0 1 13.111 13.111z" class="cls-2" data-name="Path 485" transform="translate(-322.79 -8.555)"/>
        </g>
        <g id="Group_716" data-name="Group 716" transform="translate(15.733)">
            <path id="Path_486" d="M153.143 97.133v57.687h26.222v15.733h-26.222v31.466H137.41v-32.8l-32.8 32.8H82.345l55.066-55.065v-15.733H58.745v-15.733h78.665v-47.2h15.733V81.4h26.222v15.733z" class="cls-3" data-name="Path 486" transform="translate(-58.745 -49.926)"/>
            <path id="Path_487" d="M157.144 30.871c0 10.074-15.741 36.228-21.511 44.76a2.555 2.555 0 0 1-4.176 0c-5.771-8.532-21.512-34.687-21.512-44.76a23.635 23.635 0 0 1 47.2 0z" class="cls-4" data-name="Path 487" transform="translate(-94.212 -8.529)"/>
        </g>
        <path id="Path_488" d="M155.189 30.889c0 10.074-12.243 36.228-16.731 44.76a1.759 1.759 0 0 1-3.248 0c-4.488-8.532-16.731-34.687-16.731-44.76 0-12.334 8.218-22.333 18.355-22.333s18.355 9.999 18.355 22.333z" class="cls-5" data-name="Path 488" transform="translate(-84.39 -8.548)"/>
        <ellipse id="Ellipse_233" cx="10.489" cy="10.489" class="cls-6" data-name="Ellipse 233" rx="10.489" ry="10.489" transform="translate(44.577 13.119)"/>
        <g id="Group_717" data-name="Group 717" transform="translate(131.108 .008)">
            <path id="Path_489" d="M451.278 8.817v.813a13.448 13.448 0 0 1 4.038 2.753 13.17 13.17 0 0 1 3.828 9.282v113.829a13.186 13.186 0 0 1 7.867 12.036V21.666A13.07 13.07 0 0 0 453.9 8.555a12.344 12.344 0 0 0-2.622.262z" class="cls-3" data-name="Path 489" transform="translate(-446.034 -8.555)"/>
            <path id="Path_490" d="M434.211 444.377h7.867a13.111 13.111 0 0 0 0-26.222 8.489 8.489 0 0 0-2.491 1.154 13.11 13.11 0 0 1-5.375 25.068z" class="cls-3" data-name="Path 490" transform="translate(-434.211 -292.291)"/>
        </g>
    </g>
    <g id="Group_719" data-name="Group 719">
        <path id="Path_491" d="M2.634 32.487a2.621 2.621 0 0 1-2.622-2.622V16.754A15.694 15.694 0 0 1 15.745 1.021a15.086 15.086 0 0 1 3.178.32 2.623 2.623 0 0 1-1.111 5.126 9.866 9.866 0 0 0-2.066-.2 10.448 10.448 0 0 0-10.49 10.487v13.111a2.621 2.621 0 0 1-2.622 2.622z" class="cls-7" data-name="Path 491" transform="translate(-.012 -1.015)"/>
        <path id="Path_492" d="M141.608 264.754H15.744A15.75 15.75 0 0 1 .011 249.021v-91.776a2.622 2.622 0 0 1 5.244 0v91.776a10.5 10.5 0 0 0 10.489 10.489h125.864a2.622 2.622 0 0 1 0 5.244z" class="cls-7" data-name="Path 492" transform="translate(-.011 -107.417)"/>
        <path id="Path_493" d="M2.634 428.977a2.621 2.621 0 0 1-2.622-2.622 15.75 15.75 0 0 1 15.733-15.733 15.083 15.083 0 0 1 3.178.32 2.623 2.623 0 1 1-1.111 5.127 9.864 9.864 0 0 0-2.066-.2 10.5 10.5 0 0 0-10.49 10.487 2.62 2.62 0 0 1-2.622 2.622z" class="cls-7" data-name="Path 493" transform="translate(-.012 -284.752)"/>
        <path id="Path_494" d="M449 158.352a2.622 2.622 0 1 1 0-5.244 10.5 10.5 0 0 0 10.489-10.489V16.755A10.5 10.5 0 0 0 449 6.267a9.866 9.866 0 0 0-2.066.2 2.623 2.623 0 0 1-1.111-5.126A15.1 15.1 0 0 1 449 1.022a15.75 15.75 0 0 1 15.733 15.733v125.864A15.75 15.75 0 0 1 449 158.352z" class="cls-7" data-name="Path 494" transform="translate(-307.407 -1.016)"/>
        <path id="Path_495" d="M462.116 428.978a2.621 2.621 0 0 1-2.622-2.622 10.5 10.5 0 0 0-10.489-10.489 9.873 9.873 0 0 0-2.067.2 2.623 2.623 0 0 1-1.111-5.126 15.1 15.1 0 0 1 3.178-.32 15.75 15.75 0 0 1 15.733 15.733 2.621 2.621 0 0 1-2.622 2.622z" class="cls-7" data-name="Path 495" transform="translate(-307.408 -284.752)"/>
        <path id="Path_496" d="M53.834 132.981a2.621 2.621 0 0 1-2.622-2.622V4.5a2.622 2.622 0 1 1 5.244 0v125.859a2.621 2.621 0 0 1-2.622 2.622z" class="cls-7" data-name="Path 496" transform="translate(-35.479 -1.605)"/>
        <path id="Path_497" d="M446.367 132.981a2.621 2.621 0 0 1-2.622-2.622V4.5a2.622 2.622 0 1 1 5.244 0v125.859a2.621 2.621 0 0 1-2.622 2.622z" class="cls-7" data-name="Path 497" transform="translate(-307.392 -1.605)"/>
        <path id="Path_498" d="M315.5 66h-58.058a2.622 2.622 0 1 1 0-5.244H315.5a2.622 2.622 0 1 1 0 5.244z" class="cls-7" data-name="Path 498" transform="translate(-176.521 -42.394)"/>
        <path id="Path_499" d="M69.828 66H53.834a2.622 2.622 0 0 1 0-5.244h15.994a2.622 2.622 0 0 1 0 5.244z" class="cls-7" data-name="Path 499" transform="translate(-35.479 -42.394)"/>
        <path id="Path_500" d="M158.189 69.91A13.111 13.111 0 1 1 171.3 56.8a13.111 13.111 0 0 1-13.111 13.11zm0-20.977a7.866 7.866 0 1 0 7.867 7.867 7.866 7.866 0 0 0-7.867-7.867z" class="cls-7" data-name="Path 500" transform="translate(-100.501 -30.571)"/>
        <path id="Path_501" d="M128.633 74.428a5.128 5.128 0 0 1-4.261-2.238c-4.638-6.855-21.961-34.8-21.961-46.226a26.254 26.254 0 0 1 52.443 0c0 11.426-17.323 39.371-21.963 46.229a5.123 5.123 0 0 1-4.258 2.235zm0-68.176a20.4 20.4 0 0 0-20.977 19.712c0 8.589 13.718 32.431 21.062 43.289 7.175-10.857 20.893-34.7 20.893-43.289a20.4 20.4 0 0 0-20.978-19.712z" class="cls-7" data-name="Path 501" transform="translate(-70.945 -1.001)"/>
        <path id="Path_502" d="M132.5 235.333H53.834a2.621 2.621 0 0 1-2.622-2.622v-15.733a2.621 2.621 0 0 1 2.622-2.622h36.211a2.622 2.622 0 1 1 0 5.244H56.456v10.489H132.5a2.622 2.622 0 0 1 0 5.244z" class="cls-7" data-name="Path 502" transform="translate(-35.479 -148.795)"/>
        <path id="Path_503" d="M228.2 219.6h-36.208a2.622 2.622 0 1 1 0-5.244H228.2a2.622 2.622 0 1 1 0 5.244z" class="cls-7" data-name="Path 503" transform="translate(-131.183 -148.795)"/>
        <path id="Path_504" d="M387.256 108.667h-26.222a2.622 2.622 0 0 1 0-5.244h26.222a2.622 2.622 0 1 1 0 5.244z" class="cls-7" data-name="Path 504" transform="translate(-248.281 -71.95)"/>
        <path id="Path_505" d="M387.256 159.867h-26.222a2.622 2.622 0 0 1 0-5.244h26.222a2.622 2.622 0 1 1 0 5.244z" class="cls-7" data-name="Path 505" transform="translate(-248.281 -107.417)"/>
        <path id="Path_506" d="M387.256 347.6h-26.222a2.622 2.622 0 0 1 0-5.244h26.222a2.622 2.622 0 1 1 0 5.244z" class="cls-7" data-name="Path 506" transform="translate(-248.281 -237.463)"/>
        <path id="Path_507" d="M387.256 398.8h-26.222a2.622 2.622 0 0 1 0-5.244h26.222a2.622 2.622 0 0 1 0 5.244z" class="cls-7" data-name="Path 507" transform="translate(-248.281 -272.93)"/>
        <path id="Path_508" d="M203.085 427.229a2.622 2.622 0 0 1-1.854-4.476l32.8-32.8a2.622 2.622 0 1 1 3.708 3.708l-32.8 32.8a2.613 2.613 0 0 1-1.854.768z" class="cls-7" data-name="Path 508" transform="translate(-138.867 -269.893)"/>
        <path id="Path_509" d="M130.635 377.1a2.622 2.622 0 0 1-1.854-4.476l55.066-55.065a2.622 2.622 0 0 1 3.708 3.708l-55.066 55.065a2.614 2.614 0 0 1-1.854.768z" class="cls-7" data-name="Path 509" transform="translate(-88.68 -219.767)"/>
        <path id="Path_510" d="M309.834 113.2a2.621 2.621 0 0 1-2.622-2.622v-47.2a2.621 2.621 0 0 1 2.622-2.622h15.733a2.621 2.621 0 0 1 2.622 2.622v13.111a2.622 2.622 0 1 1-5.244 0V66h-10.489v44.577a2.621 2.621 0 0 1-2.622 2.622z" class="cls-7" data-name="Path 510" transform="translate(-212.814 -42.394)"/>
        <path id="Path_511" d="M325.567 427.253h-15.733a2.621 2.621 0 0 1-2.622-2.622v-32.8a2.622 2.622 0 0 1 5.244 0v30.181h10.489v-28.847a2.622 2.622 0 0 1 5.244 0v31.466a2.621 2.621 0 0 1-2.622 2.622z" class="cls-7" data-name="Path 511" transform="translate(-212.814 -269.916)"/>
        <path id="Path_512" d="M361.034 217.555a2.621 2.621 0 0 1-2.622-2.622v-57.688a2.622 2.622 0 0 1 5.244 0v57.688a2.621 2.621 0 0 1-2.622 2.622z" class="cls-7" data-name="Path 512" transform="translate(-248.281 -107.417)"/>
        <path id="Path_513" d="M309.834 286.533a2.621 2.621 0 0 1-2.622-2.622v-15.733a2.622 2.622 0 0 1 5.244 0v15.733a2.621 2.621 0 0 1-2.622 2.622z" class="cls-7" data-name="Path 513" transform="translate(-212.814 -184.262)"/>
        <ellipse id="Ellipse_234" cx="2.622" cy="2.622" class="cls-7" data-name="Ellipse 234" rx="2.622" ry="2.622" transform="translate(0 36.717)"/>
    </g>
</svg>
